Introduction to ipumsr - IPUMS Data in R
…
Therefore, the ipumsr package uses the labelled class from the haven package to store labelled values. See the “value-labels” vignette for more information (vignette('value-labels')).

In summary, it is generally best if you wish to use the labels, to convert from the labelled class to factor early on in data analysis workflow. This is because many data manipulation functions will lose the associated labels. The function as_factor() is the main function to create factors from labels, but often you will need to do more manipulation before that.

library(ipumsr)
library(dplyr, warn.conflicts = FALSE)

# Note that you can pass in the loaded DDI into the `read_ipums_micro()`
cps_ddi <- read_ipums_ddi(ipums_example("cps_00006.xml"))
cps_data <- read_ipums_micro(cps_ddi, verbose = FALSE)

# Show which variables have labels
cps_data %>%
  select_if(is.labelled)
#> # A tibble: 7,668 x 3
#>    STATEFIP  MONTH     INCTOT   
#>    <int+lbl> <int+lbl> <dbl+lbl>
#>  1 55        3         4883     
#>  2 55        3         5800     
#>  3 55        3         99999998 
#>  4 27        3         14015    
#>  5 27        3         16552    
#>  6 27        3         6375     
#>  7 19        3         99999999 
#>  8 19        3         0        
#>  9 19        3         600      
#> 10 19        3         99999999 
#> # ... with 7,658 more rows

# Notice how the tibble print function shows the dbl+lbl class on top

# Investigate labels
ipums_val_labels(cps_data$STATEFIP)
#> # A tibble: 75 x 2
#>      val lbl                 
#>    <dbl> <chr>               
#>  1    1. Alabama             
#>  2    2. Alaska              
#>  3    4. Arizona             
#>  4    5. Arkansas            
#>  5    6. California          
#>  6    8. Colorado            
#>  7    9. Connecticut         
#>  8   10. Delaware            
#>  9   11. District of Columbia
#> 10   12. Florida             
#> # ... with 65 more rows
…
List data loads each record type into a separate data.frame. The names of the recordtype data.frames are the value of the RECTYPE variable (eg “H” and “P”). Use the function read_ipums_micro_list() to load the data this way.

Long data has one row per unit, regardless of what type of record the unit is. Therefore, datasets loaded this way often contain variables with a large number of missings, for the variables that only apply to certain record types. Use the function read_ipums_micro() to load the data this way.

library(ipumsr)
library(dplyr, warn.conflicts = FALSE)

# List data
cps <- read_ipums_micro_list(
  ipums_example("cps_00010.xml"),
  verbose = FALSE
)

cps$PERSON
#> # A tibble: 7,668 x 6
#>    RECTYPE    YEAR SERIAL PERNUM WTSUPP INCTOT   
#>    <chr+lbl> <dbl>  <dbl>  <dbl>  <dbl> <dbl+lbl>
#>  1 P         1962.    80.     1.  1476. 4883     
#>  2 P         1962.    80.     2.  1471. 5800     
#>  3 P         1962.    80.     3.  1579. 99999998 
#>  4 P         1962.    82.     1.  1598. 14015    
#>  5 P         1962.    83.     1.  1707. 16552    
#>  6 P         1962.    84.     1.  1790. 6375     
#>  7 P         1962.   107.     1.  4355. 99999999 
#>  8 P         1962.   107.     2.  1386. 0        
#>  9 P         1962.   107.     3.  1629. 600      
#> 10 P         1962.   107.     4.  1432. 99999999 
#> # ... with 7,658 more rows

cps$HOUSEHOLD
#> # A tibble: 3,385 x 6
#>    RECTYPE    YEAR SERIAL HWTSUPP STATEFIP  MONTH    
#>    <chr+lbl> <dbl>  <dbl>   <dbl> <int+lbl> <int+lbl>
#>  1 H         1962.    80.   1476. 55        3        
#>  2 H         1962.    82.   1598. 27        3        
#>  3 H         1962.    83.   1707. 27        3        
#>  4 H         1962.    84.   1790. 27        3        
#>  5 H         1962.   107.   4355. 19        3        
#>  6 H         1962.   108.   1479. 19        3        
#>  7 H         1962.   122.   3603. 27        3        
#>  8 H         1962.   124.   4104. 55        3        
#>  9 H         1962.   125.   2182. 55        3        
#> 10 H         1962.   126.   1826. 55        3        
#> # ... with 3,375 more rows

# Long data
cps <- read_ipums_micro(
  ipums_example("cps_00010.xml"),
  verbose = FALSE
)

cps
#> # A tibble: 11,053 x 9
#>    RECTYPE    YEAR SERIAL HWTSUPP STATEFIP  MONTH     PERNUM WTSUPP INCTOT
#>    <chr+lbl> <dbl>  <dbl>   <dbl> <int+lbl> <int+lbl>  <dbl>  <dbl> <dbl+>
#>  1 H         1962.    80.   1476. 55        3            NA     NA  <NA>  
#>  2 P         1962.    80.     NA  <NA>      <NA>          1.  1476. 4883  
#>  3 P         1962.    80.     NA  <NA>      <NA>          2.  1471. 5800  
#>  4 P         1962.    80.     NA  <NA>      <NA>          3.  1579. 99999~
#>  5 H         1962.    82.   1598. 27        3            NA     NA  <NA>  
#>  6 P         1962.    82.     NA  <NA>      <NA>          1.  1598. 14015 
#>  7 H         1962.    83.   1707. 27        3            NA     NA  <NA>  
#>  8 P         1962.    83.     NA  <NA>      <NA>          1.  1707. 16552 
#>  9 H         1962.    84.   1790. 27        3            NA     NA  <NA>  
#> 10 P         1962.    84.     NA  <NA>      <NA>          1.  1790. 6375  
#> # ... with 11,043 more rows
…
